%YAML 1.1
%TAG !u! tag:unity3d.com,2011:
--- !u!114 &11400000
MonoBehaviour:
  m_ObjectHideFlags: 60
  m_PrefabParentObject: {fileID: 0}
  m_PrefabInternal: {fileID: 0}
  m_GameObject: {fileID: 0}
  m_Enabled: 1
  m_EditorHideFlags: 0
  m_Script: {fileID: 11500000, guid: 03eeb8b35b8736946abb5de9c0f9e855, type: 3}
  m_Name: PresetInfo
  m_EditorClassIdentifier: 
  selectPresetIndex: 0
  presetList:
  - presetName: Reset
    config:
      boneInfoList:
      - clipList: []
        autoRandom: 1
        bone: 10
        colSize: 0.1
        offset: {x: 0, y: 0, z: 0}
      - clipList: []
        autoRandom: 1
        bone: 7
        colSize: 0.1
        offset: {x: 0, y: 0, z: 0}
      - clipList: []
        autoRandom: 1
        bone: 17
        colSize: 0.1
        offset: {x: 0, y: 0, z: 0}
      - clipList: []
        autoRandom: 1
        bone: 18
        colSize: 0.1
        offset: {x: 0, y: 0, z: 0}
      idleInfo:
        clipList: []
        autoRandom: 1
        interval: 15
        random: 0.5
        defaultAnimClip: {fileID: 0}
      approachInfo:
        clipList: []
        autoRandom: 1
        radius: 1
      eventObjs:
        prefabObj: {fileID: 0}
        audioSourceObj: {fileID: 0}
        eventsObj: {fileID: 0}
        lookSwitcherObj: {fileID: 0}
        trueObj: {fileID: 0}
        falseObj: {fileID: 0}
        textDebrisObj: {fileID: 0}
        textObj: {fileID: 0}
        idlesObj: {fileID: 0}
        buttonsObj: {fileID: 0}
        animClipsObj: {fileID: 0}
        audioClipsObj: {fileID: 0}
        playerTrackingObj: {fileID: 0}
        boneColliderObjs:
        - {fileID: 0}
        - {fileID: 0}
        - {fileID: 0}
        - {fileID: 0}
        - {fileID: 0}
        - {fileID: 0}
        - {fileID: 0}
        - {fileID: 0}
        - {fileID: 0}
        - {fileID: 0}
        - {fileID: 0}
        - {fileID: 0}
        - {fileID: 0}
        - {fileID: 0}
        - {fileID: 0}
        - {fileID: 0}
        - {fileID: 0}
        - {fileID: 0}
        - {fileID: 0}
        - {fileID: 0}
        - {fileID: 0}
        - {fileID: 0}
        - {fileID: 0}
        - {fileID: 0}
        - {fileID: 0}
        - {fileID: 0}
        - {fileID: 0}
        - {fileID: 0}
        - {fileID: 0}
        - {fileID: 0}
        - {fileID: 0}
        - {fileID: 0}
        - {fileID: 0}
        - {fileID: 0}
        - {fileID: 0}
        - {fileID: 0}
        - {fileID: 0}
        - {fileID: 0}
        - {fileID: 0}
        - {fileID: 0}
        - {fileID: 0}
        - {fileID: 0}
        - {fileID: 0}
        - {fileID: 0}
        - {fileID: 0}
        - {fileID: 0}
        - {fileID: 0}
        - {fileID: 0}
        - {fileID: 0}
        - {fileID: 0}
        - {fileID: 0}
        - {fileID: 0}
        - {fileID: 0}
        - {fileID: 0}
        - {fileID: 0}
        - {fileID: 0}
        approachColliderObj: {fileID: 0}
        setupObj: {fileID: 0}
      saveFolder: {fileID: 102900000, guid: ff85a9e1304fc28499d7ef4ebfa6087f, type: 3}
      prefabName: 
  - presetName: t
    config:
      boneInfoList:
      - clipList: []
        autoRandom: 1
        bone: 10
        colSize: 0.1
        offset: {x: 0, y: 0, z: 0}
      - clipList: []
        autoRandom: 1
        bone: 7
        colSize: 0.1
        offset: {x: 0, y: 0, z: 0}
      - clipList: []
        autoRandom: 1
        bone: 17
        colSize: 0.1
        offset: {x: 0, y: 0, z: 0}
      - clipList:
        - random: 0.33333334
          lookFlag: 1
          animClip: {fileID: 0}
          audioClip: {fileID: 0}
        - random: 0.33333334
          lookFlag: 1
          animClip: {fileID: 0}
          audioClip: {fileID: 0}
        - random: 0.33333334
          lookFlag: 1
          animClip: {fileID: 0}
          audioClip: {fileID: 0}
        autoRandom: 1
        bone: 18
        colSize: 0.1
        offset: {x: 0, y: 0, z: 0}
      idleInfo:
        clipList:
        - random: 1
          lookFlag: 1
          animClip: {fileID: 0}
          audioClip: {fileID: 0}
        autoRandom: 1
        interval: 15
        random: 0.5
        defaultAnimClip: {fileID: 0}
      approachInfo:
        clipList:
        - random: 0.5
          lookFlag: 1
          animClip: {fileID: 0}
          audioClip: {fileID: 0}
        - random: 0.5
          lookFlag: 1
          animClip: {fileID: 0}
          audioClip: {fileID: 0}
        autoRandom: 1
        radius: 1
      eventObjs:
        prefabObj: {fileID: 0}
        audioSourceObj: {fileID: 0}
        eventsObj: {fileID: 0}
        lookSwitcherObj: {fileID: 0}
        trueObj: {fileID: 0}
        falseObj: {fileID: 0}
        textDebrisObj: {fileID: 0}
        textObj: {fileID: 0}
        idlesObj: {fileID: 0}
        buttonsObj: {fileID: 0}
        animClipsObj: {fileID: 0}
        audioClipsObj: {fileID: 0}
        playerTrackingObj: {fileID: 0}
        boneColliderObjs:
        - {fileID: 0}
        - {fileID: 0}
        - {fileID: 0}
        - {fileID: 0}
        - {fileID: 0}
        - {fileID: 0}
        - {fileID: 0}
        - {fileID: 0}
        - {fileID: 0}
        - {fileID: 0}
        - {fileID: 0}
        - {fileID: 0}
        - {fileID: 0}
        - {fileID: 0}
        - {fileID: 0}
        - {fileID: 0}
        - {fileID: 0}
        - {fileID: 0}
        - {fileID: 0}
        - {fileID: 0}
        - {fileID: 0}
        - {fileID: 0}
        - {fileID: 0}
        - {fileID: 0}
        - {fileID: 0}
        - {fileID: 0}
        - {fileID: 0}
        - {fileID: 0}
        - {fileID: 0}
        - {fileID: 0}
        - {fileID: 0}
        - {fileID: 0}
        - {fileID: 0}
        - {fileID: 0}
        - {fileID: 0}
        - {fileID: 0}
        - {fileID: 0}
        - {fileID: 0}
        - {fileID: 0}
        - {fileID: 0}
        - {fileID: 0}
        - {fileID: 0}
        - {fileID: 0}
        - {fileID: 0}
        - {fileID: 0}
        - {fileID: 0}
        - {fileID: 0}
        - {fileID: 0}
        - {fileID: 0}
        - {fileID: 0}
        - {fileID: 0}
        - {fileID: 0}
        - {fileID: 0}
        - {fileID: 0}
        - {fileID: 0}
        - {fileID: 0}
        approachColliderObj: {fileID: 0}
        setupObj: {fileID: 0}
      saveFolder: {fileID: 0}
      prefabName: unitychan
